[
  {
    "color": "black",
    "category": "hue",
    "type": "primary"
  },
  {
    "color": "white",
    "category": "value",
    "type": "primary"
  },
  {
    "color": "red",
    "category": "hue",
    "type": "primary"
  },
  {
    "color": "yellow",
    "category": "hue",
    "type": "primary"
  },
  {
    "color": "green",
    "category": "hue",
    "type": "secondary"
  },
  {
    "color": "green",
    "category": "hue",
    "type": "secondary"
  },
  {
    "color": "purple",
    "category": "hue",
    "type": "secondary"
  },
  {
    "color": "gray",
    "category": "Hue",
    "type": "primary"
  },
  {
    "color": "pink",
    "category": "value",
    "type": "primary"
  },
  {
    "color": "Purple",
    "category": "Hue",
    "type": "Secondary",
    "timestamp": "Thu Nov  1 22:50:58 2018"
  },
  {
    "color": "Purple",
    "category": "Hue",
    "type": "Secondary",
    "timestamp": "Thu Nov  1 22:56:31 2018"
  },
  {
    "color": "Purple",
    "category": "Hue",
    "type": "Secondary",
    "timestamp": "Thu Nov  1 23:05:38 2018"
  },
  {
    "color": "Purple",
    "category": "Hue",
    "type": "Secondary",
    "timestamp": "Thu Nov  1 23:05:45 2018"
  },
  {
    "color": "Purple",
    "category": "Hue",
    "type": "Secondary",
    "timestamp": "Thu Nov  1 23:07:29 2018"
  },
  {
    "color": "Purple",
    "category": "Hue",
    "type": "Secondary",
    "timestamp": "Thu Nov  1 23:12:32 2018"
  },
  {
    "color": "Purple",
    "category": "Hue",
    "type": "Secondary",
    "timestamp": "Thu Nov  1 23:13:07 2018"
  },
  {
    "color": "Purple",
    "category": "Hue",
    "type": "Secondary",
    "timestamp": "Thu Nov  1 23:15:34 2018"
  }
,{"color":"Purple","category":"Hue","type":"Secondary","timestamp":"Thu Nov  1 23:22:31 2018"},{"color":"Purple","category":"Hue","type":"Secondary","timestamp":"Thu Nov  1 23:23:13 2018"},{"color":"Purple","category":"Hue","type":"Secondary","timestamp":"Thu Nov  1 23:24:40 2018"},{"color":"cyan","category":"value","type":"primary","timestamp":"Thu Nov  1 23:25:45 2018"},{"color":"Purple","category":"Hue","type":"Secondary","timestamp":"Fri Nov  2 10:27:28 2018"},{"color":"orange","category":"value","type":"primary","timestamp":"Fri Nov  2 10:41:11 2018"},{"color":"orange","category":"value","type":"primary","timestamp":"Fri Nov  2 10:47:42 2018"},{"color":"blue","category":"hue","type":"primary","timestamp":"Fri Nov  2 10:48:23 2018"}]